{
    "photos": {
        "page": 1,
        "pages": 93208,
        "perpage": 10,
        "total": "932075",
        "photo": [
            {
                "id": "43069445870",
                "owner": "131461919@N07",
                "secret": "22366a9bc2",
                "server": "1942",
                "farm": 2,
                "title": "7V8A7381",
                "ispublic": 1,
                "isfriend": 0,
                "isfamily": 0
            },
            {
                "id": "31008353138",
                "owner": "131461919@N07",
                "secret": "644e7c43cb",
                "server": "1942",
                "farm": 2,
                "title": "7V8A7408",
                "ispublic": 1,
                "isfriend": 0,
                "isfamily": 0
            },
            {
                "id": "43069440470",
                "owner": "134635814@N04",
                "secret": "12c7518c5c",
                "server": "1911",
                "farm": 2,
                "title": "Premier Mateusz Morawiecki w Lubartowie (23.09.2018)",
                "ispublic": 1,
                "isfriend": 0,
                "isfamily": 0
            },
            {
                "id": "44830786272",
                "owner": "134635814@N04",
                "secret": "0b3386fcda",
                "server": "1951",
                "farm": 2,
                "title": "Premier Mateusz Morawiecki w Lubartowie (23.09.2018)",
                "ispublic": 1,
                "isfriend": 0,
                "isfamily": 0
            },
            {
                "id": "44160840474",
                "owner": "134635814@N04",
                "secret": "ed0884f4d6",
                "server": "1910",
                "farm": 2,
                "title": "Premier Mateusz Morawiecki w Lubartowie (23.09.2018)",
                "ispublic": 1,
                "isfriend": 0,
                "isfamily": 0
            },
            {
                "id": "43069440390",
                "owner": "134635814@N04",
                "secret": "0cdc0e4f05",
                "server": "1937",
                "farm": 2,
                "title": "Premier Mateusz Morawiecki w Lubartowie (23.09.2018)",
                "ispublic": 1,
                "isfriend": 0,
                "isfamily": 0
            },
            {
                "id": "43969793605",
                "owner": "131461919@N07",
                "secret": "cea2d2bdf1",
                "server": "1914",
                "farm": 2,
                "title": "7V8A7419",
                "ispublic": 1,
                "isfriend": 0,
                "isfamily": 0
            },
            {
                "id": "31008310748",
                "owner": "131461919@N07",
                "secret": "c1d88342f0",
                "server": "1949",
                "farm": 2,
                "title": "7V8A7469",
                "ispublic": 1,
                "isfriend": 0,
                "isfamily": 0
            },
            {
                "id": "43069406290",
                "owner": "58878646@N07",
                "secret": "f7e35ab601",
                "server": "1954",
                "farm": 2,
                "title": "IMG_4363",
                "ispublic": 1,
                "isfriend": 0,
                "isfamily": 0
            },
            {
                "id": "31008302228",
                "owner": "58878646@N07",
                "secret": "a23445a76c",
                "server": "1928",
                "farm": 2,
                "title": "IMG_4365",
                "ispublic": 1,
                "isfriend": 0,
                "isfamily": 0
            }
        ]
    },
    "stat": "ok"
}